{
  "uuid": "6924c437-c258-4ef1-8c3b-788aff0ae857",
  "shortName": "Night Face",
  "longName": "Starry Night WatchFace",
  "companyName": "Noah Hanover",
  "versionCode": 1,
  "versionLabel": "1.0",
  "sdkVersion": "3",
  "targetPlatforms": ["basalt"],
  "watchapp": {
    "watchface": true
  },
  "appKeys": {
    "dummy": 0
  },
  "resources": {
    "media": [ 
    {
      "type": "font",
      "name": "JAAPOKKI_FONT_20",
      "file": "Jaapokki-Regular.otf"
      },

      {
      "type": "font",
      "name": "JAAPOKKI_FONT_17",
      "file": "Jaapokki-Regular.otf"
      },

      {
      "type": "font",
      "name": "NUMBER_FONT_55",
      "file": "vador.ttf"
      },

      {
        "type": "png",
        "name": "IMAGE_BACKGROUND",
        "file": "background_img.png"
      }
    ]
  }
}
